


===============================================
                                  No :117

          MEDPLUS CHEMIST AND DRUGGIST
-----------------------------------------------
Name: 
Address: 
-----------------------------------------------
Product                      Qty.       Price
-----------------------------------------------
Crocin                      20          580.0
A                           21          420.0

-----------------------------------------------
Total                               Rs 1000.0
-----------------------------------------------

Dealer 's signature:___________________________
===============================================
