


===============================================
                                  No :334

          MEDPLUS CHEMIST AND DRUGGIST
  VIT University, Katpadi, Vellore, T.M.

-----------------------------------------------
Name: 
Address: 
-----------------------------------------------
Product                      Qty.       Price
-----------------------------------------------

-----------------------------------------------
Total                                  Rs 0.0
-----------------------------------------------

Dealer 's signature:___________________________
===============================================
