


===============================================
                                  No :999

          MEDPLUS CHEMIST AND DRUGGIST
-----------------------------------------------
Name: Customer1
Address: Address1
-----------------------------------------------
Product                      Qty.       Price
-----------------------------------------------

-----------------------------------------------
Total                                     0.0
Valued customer Discount                 -0.0
-----------------------------------------------
Total                                  Rs 0.0
-----------------------------------------------

Dealer 's signature:___________________________
===============================================
